Project 1: Wrangling, Exploration, Visualization
…
homeless_tidy %>% dim

## [1] 2856    4

manufacturing_tidy %>% ungroup() %>% distinct(State_Abbrev.) %>% 
    count()

## # A tibble: 1 x 1
##       n
##   <int>
## 1    50

homeless_tidy %>% anti_join(manufacturing_tidy, by = "State_Abbrev.")

## # A tibble: 306 x 4
## # Groups:   State_Abbrev., Population_Type [180]
##    State_Abbrev. Population_Type                         Year Homeless_Populati
##    <chr>         <chr>                                  <dbl>              <dbl>
##  1 ""            Children.of.Parenting.Youth             2015              13242
##  2 ""            Chronically.Homeless                    2014              99132
##  3 ""            Chronically.Homeless                    2015              96275
##  4 ""            Chronically.Homeless.Individuals        2014              83989
##  5 ""            Chronically.Homeless.Individuals        2015              83170
##  6 ""            Chronically.Homeless.People.in.Famili  2014              15143
##  7 ""            Chronically.Homeless.People.in.Famili  2015              13105
##  8 ""            Homeless.Individuals                    2014             360189
##  9 ""            Homeless.Individuals                    2015             358422
## 10 ""            Homeless.People.in.Families             2014             216261
## #  with 296 more rows
…
## Rows: 50
## Columns: 2
## Groups: State_Abbrev. [50]
## $ State_Abbrev.       <chr> "AK", "AL", "AR", "AZ", "CA", "CO", "CT", "DE", "
## $ Workers_to_Homeless <dbl> 128.410963, 68.386121, 114.947031, 28.046197, 2.5

# What state has the highest chronically homeless population?
combined_data2 %>% filter(Population_Type == "Chronically.Homeless" & 
    Year == 2015) %>% arrange(desc(Population))

## # A tibble: 50 x 4
## # Groups:   State_Abbrev. [50]
##    State_Abbrev. Year  Population Population_Type     
##    <chr>         <fct>      <dbl> <chr>               
##  1 CA            2015       32174 Chronically.Homeless
##  2 NY            2015        7116 Chronically.Homeless
##  3 FL            2015        6540 Chronically.Homeless
##  4 TX            2015        4304 Chronically.Homeless
##  5 OR            2015        4011 Chronically.Homeless
##  6 MA            2015        2561 Chronically.Homeless
##  7 WA            2015        2482 Chronically.Homeless
##  8 GA            2015        2137 Chronically.Homeless
##  9 IL            2015        1912 Chronically.Homeless
## 10 CO            2015        1877 Chronically.Homeless
## #  with 40 more rows
…
NA

WY

Total.Homeless

41

NA

# Summary Statistics (3 functions used after grouping):
combined_data2 %>% group_by(Population_Type) %>% summarize(mean = mean(Population), 
    sd = sd(Population), median = median(Population)) %>% arrange(desc(mean))

## # A tibble: 31 x 4
##    Population_Type                          mean     sd  median
##    <chr>                                   <dbl>  <dbl>   <dbl>
##  1 Workers                               300265. 22100. 299196 
##  2 Total.Homeless                         11135. 19748.   5608.
##  3 Sheltered.Homeless                      7750. 12587.   3804.
##  4 Homeless.Individuals                    7017  13727.   3439 
##  5 Homeless.People.in.Families             4118.  7724.   1579 
##  6 Sheltered.Homeless.Individuals          4056.  5475.   2544.
##  7 Sheltered.Homeless.People.in.Families   3694.  7438.   1506.
##  8 Unsheltered.Homeless                    3385. 10416.    877 
##  9 Unsheltered.Homeless.Individuals        2961.  9555.    746.
## 10 Chronically.Homeless                    1874.  4547.    722.
## #  with 21 more rows

# Counts of every categorical variable
combined_data2 %>% group_by(Population_Type) %>% count

## # A tibble: 31 x 2
## # Groups:   Population_Type [31]
##    Population_Type                             n
##    <chr>                                   <int>
##  1 Children.of.Parenting.Youth                50
##  2 Chronically.Homeless                      100
##  3 Chronically.Homeless.Individuals          100
##  4 Chronically.Homeless.People.in.Families   100
##  5 Homeless.Individuals                      100
##  6 Homeless.People.in.Families               100
##  7 Homeless.Veterans                         100
##  8 Parenting.Youth.Age.18.24                  50
##  9 Parenting.Youth.Under.18                   50
## 10 Sheltered.Children.of.Parenting.Youth      50
## #  with 21 more rows

combined_data2 %>% group_by(State_Abbrev.) %>% count

## # A tibble: 50 x 2
## # Groups:   State_Abbrev. [50]
##    State_Abbrev.     n
##    <chr>         <int>
##  1 AK               53
##  2 AL               53
##  3 AR               53
##  4 AZ               53
##  5 CA               53
##  6 CO               53
##  7 CT               53
##  8 DE               53
##  9 FL               53
## 10 GA               53
## #  with 40 more rows
…
## [1] -12037

# What is the five number summary of the number of workers
# per state?
fivenum(((combined_data2 %>% filter(Population_Type == "Workers"))$Population))

## [1] 230608.0 285206.0 299196.0 316924.5 356501.0

# What is the number of unsheltered homeless parenting youth
# under 18 per state?
combined_data %>% group_by(State_Abbrev.) %>% filter(str_detect(Population_Type, 
    "Unsheltered.+18$")) %>% arrange(desc(Homeless_Population))

## # A tibble: 50 x 5
## # Groups:   State_Abbrev. [50]
##    State_Abbrev.  Year Num_Workers Population_Type             Homeless_Populat
##    <chr>         <dbl>       <dbl> <chr>                                   <dbl>
##  1 MT             2015      329902 Unsheltered.Parenting.Yout                 2
##  2 CO             2015      298168 Unsheltered.Parenting.Yout                 1
##  3 HI             2015      275451 Unsheltered.Parenting.Yout                 1
##  4 MN             2015      307085 Unsheltered.Parenting.Yout                 1
##  5 NY             2015      264034 Unsheltered.Parenting.Yout                 1
##  6 SC             2015      284383 Unsheltered.Parenting.Yout                 1
##  7 WA             2015      296709 Unsheltered.Parenting.Yout                 1
##  8 AK             2015      249649 Unsheltered.Parenting.Yout                 0
##  9 AL             2015      286682 Unsheltered.Parenting.Yout                 0
## 10 AR             2015      306036 Unsheltered.Parenting.Yout                 0
## #  with 40 more rows
…
